sim.vcd
$date
	Tue May  3 20:13:03 2022
$end
$version
	Icarus Verilog
$end
$timescale
	10ps
$end
$scope module riscv_tb $end
$var reg 1 ! clk $end
$var reg 1 " rstn $end
$var integer 32 # i [31:0] $end
$scope module my_cpu $end
$var wire 32 $ IF_PC [31:0] $end
$var wire 1 ! clk $end
$var wire 1 " rstn $end
$var wire 1 % stopclk $end
$var wire 32 & alu_in_2 [31:0] $end
$var wire 32 ' alu_in_1 [31:0] $end
$var wire 32 ( WB_tmp_write_data [31:0] $end
$var wire 1 ) WB_regwrite $end
$var wire 32 * WB_readdata [31:0] $end
$var wire 5 + WB_rd [4:0] $end
$var wire 7 , WB_opcode [6:0] $end
$var wire 1 - WB_memtoreg $end
$var wire 2 . WB_jump [1:0] $end
$var wire 32 / WB_alu_result [31:0] $end
$var wire 32 0 WB_PC_PLUS_4 [31:0] $end
$var wire 32 1 NEXT_PC [31:0] $end
$var wire 32 2 MEM_writedata [31:0] $end
$var wire 1 3 MEM_taken $end
$var wire 1 4 MEM_regwrite $end
$var wire 5 5 MEM_rd [4:0] $end
$var wire 7 6 MEM_opcode [6:0] $end
$var wire 1 7 MEM_memwrite $end
$var wire 1 8 MEM_memtoreg $end
$var wire 1 9 MEM_memread $end
$var wire 32 : MEM_mem_read_data [31:0] $end
$var wire 2 ; MEM_jump [1:0] $end
$var wire 3 < MEM_funct3 [2:0] $end
$var wire 32 = MEM_alu_result [31:0] $end
$var wire 32 > MEM_PC_target [31:0] $end
$var wire 32 ? MEM_PC_PLUS_4 [31:0] $end
$var wire 32 @ IF_instruction_tmp [31:0] $end
$var wire 32 A IF_instruction [31:0] $end
$var wire 32 B IF_PC_PLUS_4 [31:0] $end
$var wire 32 C ID_sextimm [31:0] $end
$var wire 5 D ID_rs2 [4:0] $end
$var wire 5 E ID_rs1 [4:0] $end
$var wire 1 F ID_reg_write_tmp $end
$var wire 1 G ID_reg_write $end
$var wire 32 H ID_readdata2 [31:0] $end
$var wire 32 I ID_readdata1 [31:0] $end
$var wire 5 J ID_rd [4:0] $end
$var wire 7 K ID_opcode [6:0] $end
$var wire 1 L ID_mem_write_tmp $end
$var wire 1 M ID_mem_write $end
$var wire 1 N ID_mem_to_reg $end
$var wire 1 O ID_mem_read $end
$var wire 2 P ID_jump [1:0] $end
$var wire 32 Q ID_instruction [31:0] $end
$var wire 7 R ID_funct7 [6:0] $end
$var wire 3 S ID_funct3 [2:0] $end
$var wire 1 T ID_branch $end
$var wire 1 U ID_alu_src $end
$var wire 2 V ID_alu_op [1:0] $end
$var wire 32 W ID_PC_PLUS_4 [31:0] $end
$var wire 32 X ID_PC [31:0] $end
$var wire 1 Y EX_taken $end
$var wire 32 Z EX_sextimm [31:0] $end
$var wire 5 [ EX_rs2 [4:0] $end
$var wire 5 \ EX_rs1 [4:0] $end
$var wire 1 ] EX_regwrite_tmp $end
$var wire 1 ^ EX_regwrite $end
$var wire 32 _ EX_readdata2 [31:0] $end
$var wire 32 ` EX_readdata1 [31:0] $end
$var wire 5 a EX_rd [4:0] $end
$var wire 7 b EX_opcode [6:0] $end
$var wire 1 c EX_memwrite_tmp $end
$var wire 1 d EX_memwrite $end
$var wire 1 e EX_memtoreg $end
$var wire 1 f EX_memread $end
$var wire 2 g EX_jump [1:0] $end
$var wire 7 h EX_funct7 [6:0] $end
$var wire 3 i EX_funct3 [2:0] $end
$var wire 1 j EX_check $end
$var wire 1 k EX_branch $end
$var wire 1 l EX_alusrc $end
$var wire 2 m EX_aluop [1:0] $end
$var wire 32 n EX_PC_branch_target [31:0] $end
$var wire 32 o EX_PC_PLUS_4 [31:0] $end
$var wire 32 p EX_PC [31:0] $end
$var wire 2 q EX_ForwardB [1:0] $end
$var wire 2 r EX_ForwardA [1:0] $end
$var wire 32 s EX_ALU_result [31:0] $end
$var wire 32 t EX_ALU_in [31:0] $end
$var wire 4 u EX_ALU_func [3:0] $end
$var reg 32 v PC [31:0] $end
$var reg 32 w WB_write_data [31:0] $end
$var reg 2 x maskmode [1:0] $end
$var reg 1 y sext $end
$scope module alu_in_1_mux $end
$var wire 32 z in3 [31:0] $end
$var wire 2 { select [1:0] $end
$var wire 32 | in2 [31:0] $end
$var wire 32 } in1 [31:0] $end
$var reg 32 ~ out [31:0] $end
$upscope $end
$scope module alu_in_2_mux $end
$var wire 32 !" in3 [31:0] $end
$var wire 2 "" select [1:0] $end
$var wire 32 #" in2 [31:0] $end
$var wire 32 $" in1 [31:0] $end
$var reg 32 %" out [31:0] $end
$upscope $end
$scope module m_alu $end
$var wire 32 &" in_a [31:0] $end
$var wire 32 '" in_b [31:0] $end
$var wire 4 (" alu_func [3:0] $end
$var reg 1 j check $end
$var reg 32 )" result [31:0] $end
$upscope $end
$scope module m_alu_control $end
$var wire 7 *" funct7 [6:0] $end
$var wire 3 +" funct3 [2:0] $end
$var wire 4 ," funct [3:0] $end
$var wire 2 -" alu_op [1:0] $end
$var reg 4 ." alu_func [3:0] $end
$upscope $end
$scope module m_alu_mux $end
$var wire 1 l select $end
$var wire 32 /" in2 [31:0] $end
$var wire 32 0" in1 [31:0] $end
$var reg 32 1" out [31:0] $end
$upscope $end
$scope module m_branch_control $end
$var wire 1 j check $end
$var wire 1 k branch $end
$var reg 1 Y taken $end
$upscope $end
$scope module m_branch_target_adder $end
$var wire 32 2" in_b [31:0] $end
$var wire 32 3" in_a [31:0] $end
$var reg 32 4" result [31:0] $end
$upscope $end
$scope module m_control $end
$var wire 7 5" opcode [6:0] $end
$var wire 1 F reg_write $end
$var wire 1 L mem_write $end
$var wire 1 N mem_to_reg $end
$var wire 1 O mem_read $end
$var wire 2 6" jump [1:0] $end
$var wire 1 T branch $end
$var wire 1 U alu_src $end
$var wire 2 7" alu_op [1:0] $end
$var reg 10 8" controls [9:0] $end
$upscope $end
$scope module m_data_memory $end
$var wire 1 ! clk $end
$var wire 2 9" maskmode [1:0] $end
$var wire 1 y sext $end
$var wire 32 :" write_data [31:0] $end
$var wire 1 7 mem_write $end
$var wire 1 9 mem_read $end
$var wire 8 ;" address_internal [7:0] $end
$var wire 32 <" address [31:0] $end
$var reg 32 =" read_data [31:0] $end
$upscope $end
$scope module m_exmem_reg $end
$var wire 1 ! clk $end
$var wire 32 >" ex_alu_result [31:0] $end
$var wire 32 ?" ex_pc_target [31:0] $end
$var wire 1 Y ex_taken $end
$var wire 32 @" ex_writedata [31:0] $end
$var wire 1 ^ ex_regwrite $end
$var wire 5 A" ex_rd [4:0] $end
$var wire 32 B" ex_pc_plus_4 [31:0] $end
$var wire 7 C" ex_opcode [6:0] $end
$var wire 1 d ex_memwrite $end
$var wire 1 e ex_memtoreg $end
$var wire 1 f ex_memread $end
$var wire 2 D" ex_jump [1:0] $end
$var wire 3 E" ex_funct3 [2:0] $end
$var reg 32 F" mem_alu_result [31:0] $end
$var reg 3 G" mem_funct3 [2:0] $end
$var reg 2 H" mem_jump [1:0] $end
$var reg 1 9 mem_memread $end
$var reg 1 8 mem_memtoreg $end
$var reg 1 7 mem_memwrite $end
$var reg 7 I" mem_opcode [6:0] $end
$var reg 32 J" mem_pc_plus_4 [31:0] $end
$var reg 32 K" mem_pc_target [31:0] $end
$var reg 5 L" mem_rd [4:0] $end
$var reg 1 4 mem_regwrite $end
$var reg 1 3 mem_taken $end
$var reg 32 M" mem_writedata [31:0] $end
$upscope $end
$scope module m_forwarding $end
$var wire 7 N" mem_opcode [6:0] $end
$var wire 5 O" mem_rd [4:0] $end
$var wire 5 P" wb_rd [4:0] $end
$var wire 7 Q" wb_opcode [6:0] $end
$var wire 5 R" ex_rs2 [4:0] $end
$var wire 5 S" ex_rs1 [4:0] $end
$var reg 2 T" forwardA [1:0] $end
$var reg 2 U" forwardB [1:0] $end
$upscope $end
$scope module m_hazard $end
$var wire 1 ! clk $end
$var wire 32 V" ex_alu_result [31:0] $end
$var wire 1 Y ex_branch_taken $end
$var wire 32 W" ex_branch_target [31:0] $end
$var wire 1 L id_mem_write $end
$var wire 1 F id_reg_write $end
$var wire 7 X" mem_opcode [6:0] $end
$var wire 5 Y" mem_rd [4:0] $end
$var wire 1 " rstn $end
$var wire 32 Z" if_pc_plus_4 [31:0] $end
$var wire 32 [" if_instruction [31:0] $end
$var wire 5 \" ex_rs2 [4:0] $end
$var wire 5 ]" ex_rs1 [4:0] $end
$var wire 1 ] ex_regwrite $end
$var wire 7 ^" ex_opcode [6:0] $end
$var wire 1 c ex_memwrite $end
$var wire 2 _" ex_jump [1:0] $end
$var reg 32 `" NEXT_PC [31:0] $end
$var reg 1 a" done $end
$var reg 1 d ex_memwrite_real $end
$var reg 1 ^ ex_regwrite_real $end
$var reg 1 M id_mem_write_real $end
$var reg 1 G id_reg_write_real $end
$var reg 32 b" if_instruction_real [31:0] $end
$var reg 1 % stopclk $end
$var reg 1 c" stopclk_1 $end
$var reg 1 d" stopclk_2 $end
$upscope $end
$scope module m_idex_reg $end
$var wire 1 ! clk $end
$var wire 2 e" id_aluop [1:0] $end
$var wire 1 U id_alusrc $end
$var wire 1 T id_branch $end
$var wire 3 f" id_funct3 [2:0] $end
$var wire 7 g" id_funct7 [6:0] $end
$var wire 2 h" id_jump [1:0] $end
$var wire 1 O id_memread $end
$var wire 1 N id_memtoreg $end
$var wire 1 M id_memwrite $end
$var wire 7 i" id_opcode [6:0] $end
$var wire 5 j" id_rd [4:0] $end
$var wire 1 G id_regwrite $end
$var wire 5 k" id_rs1 [4:0] $end
$var wire 5 l" id_rs2 [4:0] $end
$var wire 1 % stopclk $end
$var wire 32 m" id_sextimm [31:0] $end
$var wire 32 n" id_readdata2 [31:0] $end
$var wire 32 o" id_readdata1 [31:0] $end
$var wire 32 p" id_pc_plus_4 [31:0] $end
$var wire 32 q" id_PC [31:0] $end
$var reg 32 r" ex_PC [31:0] $end
$var reg 2 s" ex_aluop [1:0] $end
$var reg 1 l ex_alusrc $end
$var reg 1 k ex_branch $end
$var reg 3 t" ex_funct3 [2:0] $end
$var reg 7 u" ex_funct7 [6:0] $end
$var reg 2 v" ex_jump [1:0] $end
$var reg 1 f ex_memread $end
$var reg 1 e ex_memtoreg $end
$var reg 1 c ex_memwrite $end
$var reg 7 w" ex_opcode [6:0] $end
$var reg 32 x" ex_pc_plus_4 [31:0] $end
$var reg 5 y" ex_rd [4:0] $end
$var reg 32 z" ex_readdata1 [31:0] $end
$var reg 32 {" ex_readdata2 [31:0] $end
$var reg 1 ] ex_regwrite $end
$var reg 5 |" ex_rs1 [4:0] $end
$var reg 5 }" ex_rs2 [4:0] $end
$var reg 32 ~" ex_sextimm [31:0] $end
$upscope $end
$scope module m_ifid_reg $end
$var wire 1 ! clk $end
$var wire 32 !# if_PC [31:0] $end
$var wire 32 "# if_instruction [31:0] $end
$var wire 1 % stopclk $end
$var wire 32 ## if_pc_plus_4 [31:0] $end
$var reg 32 $# id_PC [31:0] $end
$var reg 32 %# id_instruction [31:0] $end
$var reg 32 &# id_pc_plus_4 [31:0] $end
$upscope $end
$scope module m_immediate_generator $end
$var wire 32 '# instruction [31:0] $end
$var wire 7 (# opcode [6:0] $end
$var reg 32 )# sextimm [31:0] $end
$upscope $end
$scope module m_instruction_memory $end
$var wire 32 *# address [31:0] $end
$var reg 32 +# instruction [31:0] $end
$upscope $end
$scope module m_memwb_reg $end
$var wire 1 ! clk $end
$var wire 32 ,# mem_alu_result [31:0] $end
$var wire 2 -# mem_jump [1:0] $end
$var wire 1 8 mem_memtoreg $end
$var wire 7 .# mem_opcode [6:0] $end
$var wire 32 /# mem_pc_plus_4 [31:0] $end
$var wire 5 0# mem_rd [4:0] $end
$var wire 32 1# mem_readdata [31:0] $end
$var wire 1 4 mem_regwrite $end
$var reg 32 2# wb_alu_result [31:0] $end
$var reg 2 3# wb_jump [1:0] $end
$var reg 1 - wb_memtoreg $end
$var reg 7 4# wb_opcode [6:0] $end
$var reg 32 5# wb_pc_plus_4 [31:0] $end
$var reg 5 6# wb_rd [4:0] $end
$var reg 32 7# wb_readdata [31:0] $end
$var reg 1 ) wb_regwrite $end
$upscope $end
$scope module m_mux_2x1 $end
$var wire 32 8# in1 [31:0] $end
$var wire 32 9# in2 [31:0] $end
$var wire 1 - select $end
$var reg 32 :# out [31:0] $end
$upscope $end
$scope module m_pc_plus_4_adder $end
$var wire 32 ;# in_a [31:0] $end
$var wire 32 <# in_b [31:0] $end
$var reg 32 =# result [31:0] $end
$upscope $end
$scope module m_register_file $end
$var wire 1 ! clk $end
$var wire 32 ># readdata1 [31:0] $end
$var wire 32 ?# readdata2 [31:0] $end
$var wire 5 @# readreg1 [4:0] $end
$var wire 5 A# readreg2 [4:0] $end
$var wire 1 ) wen $end
$var wire 32 B# writedata [31:0] $end
$var wire 5 C# writereg [4:0] $end
$upscope $end
$upscope $end
$upscope $end
$enddefinitions $end
#0
$dumpvars
bx C#
bx B#
bx A#
bx @#
bx ?#
bx >#
bx =#
bx <#
b100 ;#
bx :#
bx 9#
bx 8#
bx 7#
bx 6#
bx 5#
bx 4#
bx 3#
bx 2#
b0 1#
bx 0#
bx /#
bx .#
bx -#
bx ,#
bx +#
bx *#
bx )#
bx (#
bx '#
bx &#
bx %#
bx $#
bx ##
bx "#
bx !#
bx ~"
bx }"
bx |"
bx {"
bx z"
bx y"
bx x"
bx w"
bx v"
bx u"
bx t"
bx s"
bx r"
bx q"
bx p"
bx o"
bx n"
bx m"
bx l"
bx k"
bx j"
bx i"
bx h"
bx g"
bx f"
bx e"
0d"
0c"
bx b"
0a"
bx `"
bx _"
bx ^"
bx ]"
bx \"
bx ["
bx Z"
bx Y"
bx X"
bx W"
bx V"
bx U"
bx T"
bx S"
bx R"
bx Q"
bx P"
bx O"
bx N"
bx M"
bx L"
bx K"
bx J"
bx I"
bx H"
bx G"
bx F"
bx E"
bx D"
bx C"
bx B"
bx A"
bx @"
bx ?"
bx >"
b0 ="
bx <"
bx ;"
bx :"
bx 9"
bx 8"
bx 7"
bx 6"
bx 5"
bx 4"
bx 3"
bx 2"
bx 1"
bx 0"
bx /"
bx ."
bx -"
bx ,"
bx +"
bx *"
bx )"
bx ("
bx '"
bx &"
bx %"
bx $"
bx #"
bx ""
bx !"
bx ~
bx }
bx |
bx {
bx z
xy
bx x
bx w
bx v
bx u
bx t
bx s
bx r
bx q
bx p
bx o
bx n
bx m
xl
xk
xj
bx i
bx h
bx g
xf
xe
xd
xc
bx b
bx a
bx `
bx _
x^
x]
bx \
bx [
bx Z
xY
bx X
bx W
bx V
xU
xT
bx S
bx R
bx Q
bx P
xO
xN
xM
xL
bx K
bx J
bx I
bx H
xG
xF
bx E
bx D
bx C
bx B
bx A
bx @
bx ?
bx >
bx =
bx <
bx ;
b0 :
x9
x8
x7
bx 6
bx 5
x4
x3
bx 2
bx 1
bx 0
bx /
bx .
x-
bx ,
bx +
bx *
x)
bx (
bx '
bx &
0%
bx $
bx #
0"
0!
$end
#500
b0 A
b0 b"
b0 "#
b100 1
b100 `"
b0 (
b0 :#
b0 @
b0 ["
b0 +#
b100 B
b100 Z"
b100 ##
b100 =#
b0 *
b0 7#
b0 9#
b0 $
b0 !#
b0 v
b0 *#
b0 <#
1!
#1000
0!
#1500
0G
0M
b0 P
b0 6"
b0 h"
0T
0O
0N
b0 V
b0 7"
b0 e"
0L
0U
0F
b0 8"
b0 C
b0 m"
b0 )#
b0 (#
b0 J
b0 j"
b0 H
b0 n"
b0 ?#
b0 D
b0 l"
b0 A#
b0 I
b0 o"
b0 >#
b0 E
b0 k"
b0 @#
b0 S
b0 f"
b0 R
b0 g"
b0 K
b0 5"
b0 i"
b0 Q
b0 %#
b0 '#
b100 W
b100 p"
b100 &#
b0 X
b0 q"
b0 $#
1!
#2000
0!
#2500
b0 s
b0 )"
b0 >"
b0 V"
1j
b0 '
b0 ~
b0 &"
b0 &
b0 %"
b0 '"
b0 q
b0 ""
b0 U"
b0 r
b0 {
b0 T"
0^
0d
b0 t
b0 $"
b0 1"
b0 u
b0 ("
b0 ."
0Y
b0 n
b0 4"
b0 ?"
b0 W"
b0 b
b0 C"
b0 ^"
b0 w"
b0 a
b0 A"
b0 y"
b0 [
b0 R"
b0 \"
b0 }"
b0 \
b0 S"
b0 ]"
b0 |"
b0 _
b0 0"
b0 @"
b0 {"
b0 `
b0 }
b0 z"
b0 ,"
b0 i
b0 +"
b0 E"
b0 t"
b0 h
b0 *"
b0 u"
b0 Z
b0 /"
b0 2"
b0 ~"
0]
0e
0c
0f
b0 g
b0 D"
b0 _"
b0 v"
0l
b0 m
b0 -"
b0 s"
0k
b100 o
b100 B"
b100 x"
b0 p
b0 3"
b0 r"
1!
#3000
0!
#3500
0y
b0 x
b0 9"
b0 ;"
b0 6
b0 I"
b0 N"
b0 X"
b0 .#
b0 5
b0 L"
b0 O"
b0 Y"
b0 0#
b0 <
b0 G"
b0 2
b0 :"
b0 M"
b0 =
b0 |
b0 #"
b0 <"
b0 F"
b0 ,#
04
08
b0 ;
b0 H"
b0 -#
07
09
03
b0 >
b0 K"
b100 ?
b100 J"
b100 /#
1!
#4000
0!
#4500
b0 w
b0 z
b0 !"
b0 B#
b0 +
b0 P"
b0 6#
b0 C#
b0 /
b0 2#
b0 8#
0)
0-
b0 .
b0 3#
b100 0
b100 5#
1!
#5000
0!
#5500
1!
#6000
0!
1"
#6500
b1000001000100000110011 A
b1000001000100000110011 b"
b1000001000100000110011 "#
b1000 1
b1000 `"
b1000001000100000110011 @
b1000001000100000110011 ["
b1000001000100000110011 +#
b1000 B
b1000 Z"
b1000 ##
b1000 =#
b100 $
b100 !#
b100 v
b100 *#
b100 <#
1!
#7000
0!
#7500
1G
b10 V
b10 7"
b10 e"
1F
b110000000100010110011 A
b110000000100010110011 b"
b110000000100010110011 "#
b1100 1
b1100 `"
b10001 8"
b110000000100010110011 @
b110000000100010110011 ["
b110000000100010110011 +#
b1100 B
b1100 Z"
b1100 ##
b1100 =#
b110011 (#
b10000 J
b10000 j"
b10 H
b10 n"
b10 ?#
b10 D
b10 l"
b10 A#
b1 I
b1 o"
b1 >#
b1 E
b1 k"
b1 @#
b110011 K
b110011 5"
b110011 i"
b1000 $
b1000 !#
b1000 v
b1000 *#
b1000 <#
b1000001000100000110011 Q
b1000001000100000110011 %#
b1000001000100000110011 '#
b1000 W
b1000 p"
b1000 &#
b100 X
b100 q"
b100 $#
1!
#8000
0!
#8500
b10 &
b10 %"
b10 '"
0j
b11 s
b11 )"
b11 >"
b11 V"
b1100010000100000110011 A
b1100010000100000110011 b"
b1100010000100000110011 "#
b10000 1
b10000 `"
b10001 J
b10001 j"
b1 H
b1 n"
b1 ?#
b1 D
b1 l"
b1 A#
b0 I
b0 o"
b0 >#
b10000 E
b10000 k"
b10000 @#
b10 t
b10 $"
b10 1"
b1 '
b1 ~
b1 &"
1^
b100 n
b100 4"
b100 ?"
b100 W"
b1100010000100000110011 @
b1100010000100000110011 ["
b1100010000100000110011 +#
b10000 B
b10000 Z"
b10000 ##
b10000 =#
b110000000100010110011 Q
b110000000100010110011 %#
b110000000100010110011 '#
b1100 W
b1100 p"
b1100 &#
b1000 X
b1000 q"
b1000 $#
b110011 b
b110011 C"
b110011 ^"
b110011 w"
b10000 a
b10000 A"
b10000 y"
b10 [
b10 R"
b10 \"
b10 }"
b1 \
b1 S"
b1 ]"
b1 |"
b10 _
b10 0"
b10 @"
b10 {"
b1 `
b1 }
b1 z"
1]
b10 m
b10 -"
b10 s"
b1000 o
b1000 B"
b1000 x"
b100 p
b100 3"
b100 r"
b1100 $
b1100 !#
b1100 v
b1100 *#
b1100 <#
1!
#9000
0!
#9500
b100 s
b100 )"
b100 >"
b100 V"
b10100100000100000110011 A
b10100100000100000110011 b"
b10100100000100000110011 "#
b10100 1
b10100 `"
b10100100000100000110011 @
b10100100000100000110011 ["
b10100100000100000110011 +#
b10100 B
b10100 Z"
b10100 ##
b10100 =#
b1 &
b1 %"
b1 '"
b1 r
b1 {
b1 T"
b1 t
b1 $"
b1 1"
b11 '
b11 ~
b11 &"
b1000 n
b1000 4"
b1000 ?"
b1000 W"
b10000 J
b10000 j"
b11 H
b11 n"
b11 ?#
b11 D
b11 l"
b11 A#
b10 I
b10 o"
b10 >#
b10 E
b10 k"
b10 @#
b10000 $
b10000 !#
b10000 v
b10000 *#
b10000 <#
b110011 6
b110011 I"
b110011 N"
b110011 X"
b110011 .#
b10000 5
b10000 L"
b10000 O"
b10000 Y"
b10000 0#
b10 2
b10 :"
b10 M"
b11 =
b11 |
b11 #"
b11 <"
b11 F"
b11 ,#
14
b100 >
b100 K"
b1000 ?
b1000 J"
b1000 /#
b10001 a
b10001 A"
b10001 y"
b1 [
b1 R"
b1 \"
b1 }"
b10000 \
b10000 S"
b10000 ]"
b10000 |"
b1 _
b1 0"
b1 @"
b1 {"
b0 `
b0 }
b0 z"
b1100 o
b1100 B"
b1100 x"
b1000 p
b1000 3"
b1000 r"
b1100010000100000110011 Q
b1100010000100000110011 %#
b1100010000100000110011 '#
b10000 W
b10000 p"
b10000 &#
b1100 X
b1100 q"
b1100 $#
1!
#10000
0!
#10500
b11 &
b11 %"
b11 '"
b101 s
b101 )"
b101 >"
b101 V"
b11 w
b11 z
b11 !"
b11 B#
b111100100010000000100011 A
b111100100010000000100011 b"
b111100100010000000100011 "#
b11000 1
b11000 `"
b101 H
b101 n"
b101 ?#
b101 D
b101 l"
b101 A#
b100 I
b100 o"
b100 >#
b100 E
b100 k"
b100 @#
b11 t
b11 $"
b11 1"
b1100 n
b1100 4"
b1100 ?"
b1100 W"
b1 ;"
b10 '
b10 ~
b10 &"
b0 r
b0 {
b0 T"
b11 (
b11 :#
b111100100010000000100011 @
b111100100010000000100011 ["
b111100100010000000100011 +#
b11000 B
b11000 Z"
b11000 ##
b11000 =#
b10100100000100000110011 Q
b10100100000100000110011 %#
b10100100000100000110011 '#
b10100 W
b10100 p"
b10100 &#
b10000 X
b10000 q"
b10000 $#
b10000 a
b10000 A"
b10000 y"
b11 [
b11 R"
b11 \"
b11 }"
b10 \
b10 S"
b10 ]"
b10 |"
b11 _
b11 0"
b11 @"
b11 {"
b10 `
b10 }
b10 z"
b10000 o
b10000 B"
b10000 x"
b1100 p
b1100 3"
b1100 r"
b10001 5
b10001 L"
b10001 O"
b10001 Y"
b10001 0#
b1 2
b1 :"
b1 M"
b100 =
b100 |
b100 #"
b100 <"
b100 F"
b100 ,#
b1000 >
b1000 K"
b1100 ?
b1100 J"
b1100 /#
b10000 +
b10000 P"
b10000 6#
b10000 C#
b11 /
b11 2#
b11 8#
1)
b1000 0
b1000 5#
b10100 $
b10100 !#
b10100 v
b10100 *#
b10100 <#
1!
#11000
0!
#11500
0G
1M
b0 V
b0 7"
b0 e"
1L
1U
0F
b100 w
b100 z
b100 !"
b100 B#
b1001 s
b1001 )"
b1001 >"
b1001 V"
b100001000010000000100011 A
b100001000010000000100011 b"
b100001000010000000100011 "#
b11100 1
b11100 `"
b110 8"
b100001000010000000100011 @
b100001000010000000100011 ["
b100001000010000000100011 +#
b11100 B
b11100 Z"
b11100 ##
b11100 =#
b100 (
b100 :#
b101 &
b101 %"
b101 '"
b101 t
b101 $"
b101 1"
b100 '
b100 ~
b100 &"
b10000 n
b10000 4"
b10000 ?"
b10000 W"
b100011 (#
b0 J
b0 j"
b1111 H
b1111 n"
b1111 ?#
b1111 D
b1111 l"
b1111 A#
b10 S
b10 f"
b100011 K
b100011 5"
b100011 i"
b11000 $
b11000 !#
b11000 v
b11000 *#
b11000 <#
b10001 +
b10001 P"
b10001 6#
b10001 C#
b100 /
b100 2#
b100 8#
b1100 0
b1100 5#
b10000 5
b10000 L"
b10000 O"
b10000 Y"
b10000 0#
b11 2
b11 :"
b11 M"
b101 =
b101 |
b101 #"
b101 <"
b101 F"
b101 ,#
b1100 >
b1100 K"
b10000 ?
b10000 J"
b10000 /#
b101 [
b101 R"
b101 \"
b101 }"
b100 \
b100 S"
b100 ]"
b100 |"
b101 _
b101 0"
b101 @"
b101 {"
b100 `
b100 }
b100 z"
b10100 o
b10100 B"
b10100 x"
b10000 p
b10000 3"
b10000 r"
b111100100010000000100011 Q
b111100100010000000100011 %#
b111100100010000000100011 '#
b11000 W
b11000 p"
b11000 &#
b10100 X
b10100 q"
b10100 $#
1!
#12000
0!
#12500
b100 s
b100 )"
b100 >"
b100 V"
b0 &
b0 %"
b0 '"
b101 w
b101 z
b101 !"
b101 B#
b100010100100000011 A
b100010100100000011 b"
b100010100100000011 "#
b100000 1
b100000 `"
b1000 H
b1000 n"
b1000 ?#
b1000 D
b1000 l"
b1000 A#
b1000 I
b1000 o"
b1000 >#
b1000 E
b1000 k"
b1000 @#
0^
1d
b0 t
b0 $"
b0 1"
b10100 n
b10100 4"
b10100 ?"
b10100 W"
b10 ;"
b101 (
b101 :#
b100010100100000011 @
b100010100100000011 ["
b100010100100000011 +#
b100000 B
b100000 Z"
b100000 ##
b100000 =#
b100001000010000000100011 Q
b100001000010000000100011 %#
b100001000010000000100011 '#
b11100 W
b11100 p"
b11100 &#
b11000 X
b11000 q"
b11000 $#
b100011 b
b100011 C"
b100011 ^"
b100011 w"
b0 a
b0 A"
b0 y"
b1111 [
b1111 R"
b1111 \"
b1111 }"
b1111 _
b1111 0"
b1111 @"
b1111 {"
b10 ,"
b10 i
b10 +"
b10 E"
b10 t"
0]
1c
1l
b0 m
b0 -"
b0 s"
b11000 o
b11000 B"
b11000 x"
b10100 p
b10100 3"
b10100 r"
b101 2
b101 :"
b101 M"
b1001 =
b1001 |
b1001 #"
b1001 <"
b1001 F"
b1001 ,#
b10000 >
b10000 K"
b10100 ?
b10100 J"
b10100 /#
b10000 +
b10000 P"
b10000 6#
b10000 C#
b101 /
b101 2#
b101 8#
b10000 0
b10000 5#
b11100 $
b11100 !#
b11100 v
b11100 *#
b11100 <#
1!
#13000
0!
#13500
1G
0M
1O
1N
0L
1F
b1001 w
b1001 z
b1001 !"
b1001 B#
b1000 s
b1000 )"
b1000 >"
b1000 V"
b110010000100110110011 A
b110010000100110110011 b"
b110010000100110110011 "#
b100100 1
b100100 `"
b1100011 8"
b110010000100110110011 @
b110010000100110110011 ["
b110010000100110110011 +#
b100100 B
b100100 Z"
b100100 ##
b100100 =#
b1001 (
b1001 :#
b10 x
b10 9"
b1 ;"
b1000 '
b1000 ~
b1000 &"
b11000 n
b11000 4"
b11000 ?"
b11000 W"
b11 (#
b10010 J
b10010 j"
b0 H
b0 n"
b0 ?#
b0 D
b0 l"
b0 A#
b100 I
b100 o"
b100 >#
b100 E
b100 k"
b100 @#
b11 K
b11 5"
b11 i"
b100000 $
b100000 !#
b100000 v
b100000 *#
b100000 <#
b1001 /
b1001 2#
b1001 8#
b10100 0
b10100 5#
b100011 6
b100011 I"
b100011 N"
b100011 X"
b100011 .#
b0 5
b0 L"
b0 O"
b0 Y"
b0 0#
b10 <
b10 G"
b1111 2
b1111 :"
b1111 M"
b100 =
b100 |
b100 #"
b100 <"
b100 F"
b100 ,#
04
17
b10100 >
b10100 K"
b11000 ?
b11000 J"
b11000 /#
b1000 [
b1000 R"
b1000 \"
b1000 }"
b1000 \
b1000 S"
b1000 ]"
b1000 |"
b1000 _
b1000 0"
b1000 @"
b1000 {"
b1000 `
b1000 }
b1000 z"
b11100 o
b11100 B"
b11100 x"
b11000 p
b11000 3"
b11000 r"
b100010100100000011 Q
b100010100100000011 %#
b100010100100000011 '#
b100000 W
b100000 p"
b100000 &#
b11100 X
b11100 q"
b11100 $#
1!
#14000
0!
#14500
0O
0N
b10 V
b10 7"
b10 e"
0U
b10001 8"
b100 s
b100 )"
b100 >"
b100 V"
b100 w
b100 z
b100 !"
b100 B#
b110010000101000110011 A
b110010000101000110011 b"
b110010000101000110011 "#
b101000 1
b101000 `"
b110011 (#
b10011 J
b10011 j"
b1 H
b1 n"
b1 ?#
b1 D
b1 l"
b1 A#
b0 I
b0 o"
b0 >#
b10010 E
b10010 k"
b10010 @#
b0 S
b0 f"
b110011 K
b110011 5"
b110011 i"
1^
0d
b11100 n
b11100 4"
b11100 ?"
b11100 W"
b10 ;"
b100 '
b100 ~
b100 &"
b100 (
b100 :#
b110010000101000110011 @
b110010000101000110011 ["
b110010000101000110011 +#
b101000 B
b101000 Z"
b101000 ##
b101000 =#
b110010000100110110011 Q
b110010000100110110011 %#
b110010000100110110011 '#
b100100 W
b100100 p"
b100100 &#
b100000 X
b100000 q"
b100000 $#
b11 b
b11 C"
b11 ^"
b11 w"
b10010 a
b10010 A"
b10010 y"
b0 [
b0 R"
b0 \"
b0 }"
b100 \
b100 S"
b100 ]"
b100 |"
b0 _
b0 0"
b0 @"
b0 {"
b100 `
b100 }
b100 z"
1]
1e
0c
1f
b100000 o
b100000 B"
b100000 x"
b11100 p
b11100 3"
b11100 r"
b1000 2
b1000 :"
b1000 M"
b1000 =
b1000 |
b1000 #"
b1000 <"
b1000 F"
b1000 ,#
b11000 >
b11000 K"
b11100 ?
b11100 J"
b11100 /#
b0 +
b0 P"
b0 6#
b0 C#
b100 /
b100 2#
b100 8#
0)
b11000 0
b11000 5#
b100100 $
b100100 !#
b100100 v
b100100 *#
b100100 <#
1!
#15000
0!
